       1
  -0.0109326227  -0.0043193468   0.0025469962
  -0.0016328128   0.0045218122  -0.0004964563
  -0.0007682785  -0.0018788154  -0.0022281280
  -0.0005229271  -0.0015455942   0.0072243745
   0.0027936957   0.0112227153  -0.0025639751
   0.0010878413   0.0000977800  -0.0068973888
   0.0028327006  -0.0000617237  -0.0030328553
  -0.0003183299  -0.0025747709   0.0023542564
  -0.0084997962   0.0069945994  -0.0032419272
  -0.0050689606   0.0032813730   0.0015415615
  -0.0020922344  -0.0033660259   0.0073996856
   0.0005136921   0.0011213178  -0.0006955699
  -0.0021212597   0.0010661223   0.0041636691
   0.0112726612   0.0069134492  -0.0087276206
  -0.0048665370  -0.0063576419   0.0098169049
  -0.0048595415  -0.0045120619   0.0076383934
   0.0048126430  -0.0014289665  -0.0022658576
  -0.0011806853  -0.0062248762  -0.0006093944
   0.0109912089   0.0065908786   0.0047541321
   0.0058757578  -0.0031454626  -0.0031082994
   0.0065836093  -0.0035527327  -0.0001434110
  -0.0012717993  -0.0023176845  -0.0058588959
  -0.0020011473   0.0034440136  -0.0026363433
  -0.0006811124  -0.0005279235  -0.0013475335
  -0.0005985584   0.0021418486   0.0022199051
   0.0018343125   0.0003861212   0.0020470461
   0.0056849195   0.0001226876  -0.0010883337
  -0.0000457547   0.0049997920  -0.0014150738
   0.0050079111   0.0006395912   0.0012393362
   0.0002774785  -0.0002037017  -0.0000444762
  -0.0049871157  -0.0033201209  -0.0069707357
   0.0037152736   0.0025974677  -0.0015753667
   0.0019449438  -0.0010166491  -0.0032461243
  -0.0054438368  -0.0049317035  -0.0027934200
  -0.0012933099  -0.0025767393  -0.0009643700
  -0.0027625286   0.0033324176   0.0069356591
   0.0004484847   0.0035104810   0.0041541967
  -0.0022358619  -0.0083095567  -0.0006177303
  -0.0040792765   0.0083744173   0.0023974904
  -0.0031194182  -0.0038775921   0.0024244965
   0.0062944189   0.0011586751   0.0047452910
   0.0057691786  -0.0053369251  -0.0043404253
  -0.0012076627   0.0056939160   0.0044619605
  -0.0035136787   0.0069170963   0.0003693955
  -0.0001565740  -0.0044637546  -0.0057496707
  -0.0021239965  -0.0026496199  -0.0018832405
   0.0036536110   0.0017835847   0.0055934574
  -0.0027722054  -0.0029801478   0.0008563291
   0.0041512756  -0.0004324060   0.0037909913
   0.0014838744  -0.0003334765  -0.0074672307
  -0.0066586224   0.0039383570  -0.0002906431
   0.0010270771  -0.0051553606  -0.0036040895
   0.0050578292  -0.0027732049  -0.0055653889
  -0.0052979531  -0.0006759297   0.0027944476
       2
  -0.0005503025  -0.0000489761  -0.0007171697
  -0.0016943255  -0.0011675147   0.0000467842
   0.0004187926   0.0000837847   0.0004775843
   0.0005008566   0.0002893524  -0.0010722305
  -0.0005647624  -0.0003889336  -0.0004570336
   0.0006104257  -0.0010990480  -0.0006743152
  -0.0003211481   0.0010113495   0.0032704770
  -0.0008467234  -0.0002333650   0.0001537272
  -0.0007451190   0.0013075394   0.0007029780
  -0.0000583578  -0.0014764846  -0.0018710708
  -0.0005952168  -0.0000059786   0.0010530277
   0.0020714117   0.0005936167  -0.0006864423
  -0.0013112485  -0.0010601013   0.0002343097
   0.0003905362   0.0013748444   0.0015115919
   0.0023225070  -0.0019963103   0.0004813210
  -0.0007438324   0.0012352695  -0.0008701492
   0.0005198155   0.0010981188   0.0014067990
  -0.0006870179   0.0005874663   0.0008401269
   0.0002775688  -0.0012328069  -0.0008881631
  -0.0004077248   0.0006782195   0.0007347910
  -0.0006272852   0.0004177767   0.0000503751
   0.0008614094   0.0000575436   0.0002962623
   0.0017715468  -0.0006611883   0.0009795917
   0.0007125849  -0.0013092603  -0.0002631285
  -0.0010873345   0.0014730100  -0.0005847281
   0.0000834150   0.0019213492   0.0006716601
   0.0003529749   0.0007784627   0.0013998041
  -0.0010610130   0.0004985889   0.0008322546
  -0.0014575087  -0.0006507171  -0.0009220503
   0.0009279656   0.0018648074  -0.0007323547
   0.0007052626  -0.0010765748  -0.0009608422
  -0.0003881240  -0.0000220378  -0.0012973621
   0.0001030950  -0.0011164003  -0.0004017013
  -0.0004881698  -0.0009303263   0.0014388331
   0.0027349867  -0.0007677194   0.0008692817
  -0.0010812341   0.0006980736   0.0007500881
  -0.0009982294  -0.0007611193  -0.0011767143
  -0.0000314449   0.0010871922  -0.0012185125
   0.0008465953  -0.0002555819  -0.0010264650
   0.0010426277  -0.0011885617  -0.0016375540
   0.0000475481   0.0010424525  -0.0002889835
  -0.0014237732   0.0007181798   0.0001237758
   0.0013283892  -0.0024134574  -0.0003389251
   0.0006213546   0.0002000373  -0.0007741838
   0.0007764906  -0.0002948936   0.0003586600
  -0.0004201408  -0.0014294997  -0.0020826008
  -0.0008377143   0.0013759777   0.0016276921
   0.0000869080  -0.0007289108  -0.0013904540
  -0.0022228122  -0.0007755003   0.0018081597
  -0.0007946940   0.0021359750   0.0004244450
   0.0004472667  -0.0017326769   0.0001912930
   0.0005295691   0.0008754520   0.0005456136
  -0.0005681662   0.0006156446   0.0008085673
   0.0009215192   0.0008038605  -0.0017567403
       3
  -0.0047112470  -0.0033046875  -0.0045917401
  -0.0044661917  -0.0040866630  -0.0021800502
  -0.0009001670  -0.0036373302   0.0031821047
  -0.0062425419  -0.0096768389  -0.0020395728
  -0.0009482787   0.0038703646   0.0012971188
  -0.0003362444   0.0043327455   0.0013237957
  -0.0055325466  -0.0027932627  -0.0029366556
   0.0011736086   0.0010252324  -0.0023332856
   0.0026429842  -0.0057105213   0.0019419021
  -0.0007628272  -0.0069572048  -0.0009339352
   0.0087320953   0.0057800312  -0.0102908345
  -0.0070394801   0.0051116418   0.0032059277
  -0.0006946741   0.0009338425   0.0084978735
   0.0134417537   0.0027122756  -0.0014145015
   0.0007203417  -0.0034189380   0.0026082775
   0.0027858596   0.0048424380  -0.0065038788
  -0.0097308589   0.0026029201   0.0063593517
   0.0012342221   0.0019444928  -0.0005749926
  -0.0032694446  -0.0016616555  -0.0002287561
   0.0031377998   0.0119260089   0.0073147211
   0.0000355705  -0.0015362910   0.0044591943
   0.0008871505  -0.0127947424   0.0038548655
  -0.0059436467   0.0076691913  -0.0050148285
  -0.0019183488  -0.0018914891   0.0012351345
  -0.0074688170   0.0081378179   0.0038077987
   0.0035227590  -0.0053491432  -0.0153900070
   0.0096895451   0.0048680375   0.0062217164
   0.0083359521   0.0001505148   0.0032904161
   0.0009132844   0.0056632714  -0.0045508573
  -0.0058651948  -0.0029026723   0.0047304044
   0.0040560048   0.0001622961  -0.0018222342
  -0.0063498233   0.0009243576   0.0226369017
   0.0059815322   0.0017491813   0.0019579073
  -0.0038258534   0.0018545748  -0.0072970985
   0.0110278715  -0.0048436322  -0.0034207668
   0.0044061640  -0.0051150513  -0.0066662830
   0.0023658637   0.0018265678  -0.0029945027
  -0.0003747407  -0.0031987386   0.0056996238
  -0.0112546537  -0.0071997168  -0.0052004909
   0.0056032007  -0.0071778322   0.0080647822
  -0.0039950111   0.0052183758   0.0025496093
  -0.0090013361   0.0086642406   0.0017138436
   0.0029598777  -0.0038526631  -0.0035666542
   0.0094465652  -0.0002281030   0.0011919381
   0.0062025929   0.0019775524   0.0035269436
  -0.0003006258   0.0001002161  -0.0072546475
  -0.0033725017   0.0040154759   0.0030272095
  -0.0017551375  -0.0082273256  -0.0045146013
  -0.0003838296  -0.0076066376  -0.0058684395
   0.0024887214   0.0012276130   0.0002853718
   0.0061566551   0.0112479930   0.0071325629
  -0.0008135122  -0.0008533335  -0.0043025155
  -0.0001682575   0.0018118041   0.0033639597
  -0.0105221830   0.0016733997  -0.0125891262
       4
   0.0042611883  -0.0105093442   0.0109710662
  -0.0057467736  -0.0017621791   0.0029467192
  -0.0008668028   0.0026949010   0.0022100487
  -0.0021525700  -0.0026313952  -0.0074626841
   0.0027494111   0.0034745132   0.0072510611
  -0.0031651592  -0.0116884393  -0.0014341314
  -0.0004327467  -0.0037138507  -0.0037967511
   0.0040436377   0.0229787480  -0.0098050611
   0.0037277856  -0.0047294602  -0.0017552494
   0.0033630350  -0.0068361890   0.0086892283
   0.0017111838   0.0068744255   0.0119086284
   0.0070744465   0.0120528369  -0.0110061385
   0.0131626080   0.0048419619  -0.0064930095
   0.0033248461  -0.0023818364  -0.0062528404
  -0.0082028453   0.0029058700   0.0025536737
   0.0109280899  -0.0105838697  -0.0008344608
  -0.0088646559  -0.0081171612  -0.0069598054
  -0.0019068098  -0.0006773073  -0.0040314540
  -0.0063198887  -0.0020229031   0.0127556584
   0.0010331438  -0.0006071708   0.0040759312
   0.0023864710  -0.0006878809   0.0015309245
   0.0044069948  -0.0007101329  -0.0130689416
   0.0069819389   0.0078786856   0.0035634927
  -0.0094034359  -0.0106367397  -0.0104900450
  -0.0000754038   0.0015717519  -0.0042187555
  -0.0011289799   0.0093643571  -0.0075300553
   0.0013411662   0.0046797440   0.0083992318
  -0.0011923667  -0.0039575646  -0.0005670387
   0.0108518000   0.0093451992   0.0097749095
  -0.0032726895   0.0021412758  -0.0031469353
  -0.0111342337   0.0002197512  -0.0025082560
  -0.0011386230   0.0046492653   0.0077236533
  -0.0015249949   0.0009994153   0.0015601932
   0.0012533543  -0.0006960226   0.0018724788
   0.0029455663  -0.0066156234  -0.0043723505
  -0.0118556512  -0.0077669406  -0.0018202817
   0.0065817918  -0.0075006047   0.0053914058
  -0.0035009608   0.0013241405  -0.0009139983
   0.0055345863  -0.0034803049  -0.0079891742
  -0.0033949339   0.0020148920   0.0016158876
  -0.0065501729  -0.0006980449   0.0085476402
  -0.0053141677  -0.0028126224  -0.0013706814
  -0.0008720033   0.0116595659   0.0007232004
  -0.0065963173   0.0000132231   0.0012124489
   0.0062825234  -0.0063911165  -0.0060347770
  -0.0001799723   0.0040067246  -0.0024858964
  -0.0036376410  -0.0005747379   0.0036850775
   0.0007077500  -0.0038121953  -0.0080978864
  -0.0015096880  -0.0046649282   0.0059837561
  -0.0030344527   0.0073604591   0.0013402355
   0.0005212918   0.0041172429  -0.0052755225
   0.0001281730   0.0053027549   0.0022834973
   0.0025454661  -0.0052781048   0.0138877437
   0.0051266910   0.0000729660  -0.0027356102
       5
  -0.0028819505  -0.0014139299   0.0000945938
   0.0030476787   0.0002744767   0.0004784994
  -0.0000482863  -0.0002967491   0.0008053474
   0.0030224666   0.0024046711  -0.0023128115
  -0.0026448229  -0.0032024891   0.0016601505
   0.0025034455   0.0014985646   0.0014019888
  -0.0020422707   0.0015909135   0.0017206086
  -0.0010319004  -0.0027184963  -0.0003650388
   0.0016153896   0.0000550888  -0.0003826976
   0.0008106720   0.0023307527  -0.0004541286
  -0.0035084706  -0.0034809544   0.0023874359
  -0.0007113563   0.0017730936   0.0029645512
   0.0012807486   0.0005437772  -0.0013542610
   0.0010418496   0.0024610712  -0.0000559466
  -0.0011873840   0.0011952933   0.0023917395
   0.0005045991  -0.0003702012   0.0000709472
   0.0036310503   0.0013872453  -0.0013857700
  -0.0027903452  -0.0025664349  -0.0004978561
  -0.0026610992   0.0010981643  -0.0015877837
   0.0034844976   0.0020447998   0.0019606917
  -0.0022285948  -0.0020174895   0.0010082298
  -0.0044316964   0.0020546455  -0.0002020214
   0.0018256598   0.0016285209  -0.0015685828
  -0.0036563116   0.0006074476  -0.0010911230
  -0.0022062981  -0.0026524743  -0.0005329718
  -0.0002775734  -0.0017317517  -0.0004283029
   0.0008330186  -0.0030353239   0.0015712735
  -0.0002282028  -0.0006051779   0.0006046184
   0.0008362235  -0.0029781640  -0.0016177963
   0.0024497988   0.0030176142   0.0005634668
   0.0014056634  -0.0003424934   0.0000322581
  -0.0005040404   0.0015635138   0.0000152244
  -0.0006895542   0.0021180743   0.0007329641
  -0.0050281619  -0.0027084578   0.0023673393
   0.0016506266   0.0004189198  -0.0030176449
   0.0007557094   0.0000108212   0.0015099376
  -0.0007585837  -0.0020875757   0.0020373858
   0.0003507611   0.0009746644  -0.0019705347
   0.0024366393   0.0012073686  -0.0028410888
   0.0004922828   0.0003921091  -0.0018163239
   0.0011421209  -0.0025153456   0.0018778053
   0.0047466900   0.0007552448  -0.0020975349
  -0.0007230946  -0.0000355880   0.0028909417
   0.0008031855  -0.0000217416  -0.0033586374
  -0.0021664180  -0.0002107012  -0.0000997352
  -0.0006556592   0.0013634152  -0.0013498361
   0.0006222375   0.0022225736   0.0011730197
  -0.0014379338  -0.0010095456  -0.0015586351
   0.0010160054  -0.0008654728  -0.0014027456
   0.0011972463  -0.0001097498  -0.0010337603
   0.0019817984  -0.0014007062   0.0019522687
  -0.0000506780  -0.0000811027  -0.0008375721
   0.0000726128  -0.0012187137   0.0011496199
  -0.0010099909   0.0026839856  -0.0002017663
       6
   0.0000000000  -0.0000000000   0.0000000000
  -0.0000000000   0.0000000000  -0.0000000000
       7
  -0.0075250604  -0.0041620838   0.0004997335
  -0.0058976169  -0.0059649325  -0.0022959178
   0.0050536815  -0.0040957834   0.0040892403
  -0.0090968082  -0.0065065941   0.0061227082
  -0.0039081564  -0.0049503385   0.0052104024
  -0.0031357687   0.0013672696   0.0091394181
  -0.0033888653   0.0000290091  -0.0032511336
   0.0061103664  -0.0007970897   0.0016248122
   0.0005187977  -0.0029727856   0.0015932146
   0.0025874489  -0.0006342995  -0.0043363325
   0.0081371986   0.0094104700  -0.0080319747
  -0.0014947363   0.0063922491   0.0080100314
  -0.0019052791  -0.0003011518   0.0115661906
   0.0196117400   0.0060047224  -0.0074352077
   0.0016913564  -0.0012034580   0.0003439708
  -0.0012433456   0.0075802911  -0.0059671479
  -0.0088840534   0.0023228356   0.0046393853
  -0.0062599755  -0.0018926841  -0.0019112561
  -0.0004922208  -0.0026368047   0.0014456247
  -0.0024685657   0.0102005720   0.0032387976
  -0.0015659405   0.0014360473   0.0047295860
   0.0028923522  -0.0121701512   0.0010816543
  -0.0037580090   0.0031015474  -0.0007589699
  -0.0052416444  -0.0043307036   0.0002319926
  -0.0063682253   0.0044683000   0.0009685083
   0.0016136216  -0.0045178781  -0.0048925015
   0.0123543721   0.0020789427  -0.0044956612
   0.0057498916   0.0011977700   0.0006585198
   0.0053095720   0.0080471819  -0.0088772762
  -0.0019819549  -0.0015817738   0.0069748093
   0.0028521597  -0.0016396974  -0.0033428993
  -0.0012113819  -0.0012045368   0.0129360216
   0.0050551515   0.0030666787   0.0036320267
  -0.0028112341   0.0003739006  -0.0078633865
   0.0027306415  -0.0015889418  -0.0058138732
   0.0090239787  -0.0049870786  -0.0100784564
   0.0038129710   0.0044082166  -0.0058099131
  -0.0017439445  -0.0018427451   0.0000296167
  -0.0067484693  -0.0043978792  -0.0036056081
   0.0062691175  -0.0100188355   0.0120175410
  -0.0055817816   0.0055108395   0.0027355116
  -0.0057553742   0.0085559357   0.0029853318
  -0.0014627102  -0.0044740488  -0.0004329690
   0.0028174896   0.0034807780  -0.0038155683
   0.0059591636   0.0035440942   0.0049457345
  -0.0071761685  -0.0057004074  -0.0090516499
  -0.0053954574   0.0039558206   0.0026933025
  -0.0063722963  -0.0033194097  -0.0072510313
  -0.0022073541  -0.0079627746  -0.0067220514
   0.0062593509  -0.0045017836   0.0015670117
   0.0017623739   0.0064928286   0.0034767891
  -0.0007687781  -0.0029117571  -0.0048983896
   0.0053830022  -0.0004671854   0.0029520678
  -0.0017046230   0.0107092926  -0.0012003786
       8
  -0.0023225220  -0.0007212557   0.0007595457
   0.0013963457  -0.0001807835   0.0013643942
  -0.0013320390   0.0023583717  -0.0003182838
  -0.0002182812  -0.0010678670   0.0029885691
   0.0009714538   0.0007729689  -0.0022897376
   0.0013026046   0.0014335993   0.0002978554
   0.0004500064  -0.0003057222   0.0008288420
  -0.0025880912  -0.0002761606  -0.0003294798
  -0.0016473091   0.0018514598  -0.0000306085
   0.0008462186   0.0010017577  -0.0006655798
  -0.0009597020   0.0002201812   0.0013397793
   0.0012084361   0.0022980047  -0.0001574668
   0.0018838496  -0.0001549094  -0.0022938356
  -0.0000844258  -0.0002134856   0.0009724407
   0.0020627753  -0.0021686516  -0.0008334311
   0.0024322700   0.0005061558  -0.0021634720
  -0.0010778367  -0.0016164232  -0.0000572836
   0.0012233301   0.0007007311   0.0007953603
   0.0002948104  -0.0010059094  -0.0005760470
  -0.0003894388  -0.0000225215  -0.0012940983
   0.0006009492  -0.0017951272  -0.0002460490
   0.0010232064  -0.0013543617  -0.0001949494
  -0.0025177761  -0.0028058413  -0.0032769918
   0.0028980690   0.0038436325   0.0017806616
  -0.0002662205  -0.0017825312  -0.0015947712
   0.0039373709   0.0003183781  -0.0020964025
  -0.0010731128  -0.0010088363   0.0002292370
  -0.0008735623  -0.0007025402   0.0007275001
  -0.0006440842  -0.0000780822   0.0012433201
   0.0001810909  -0.0002288932  -0.0020080647
  -0.0012854334  -0.0000156981  -0.0006199879
   0.0008683626  -0.0000873436   0.0000577254
  -0.0002522689   0.0014980578   0.0025056614
  -0.0006056110   0.0012288578  -0.0015992366
  -0.0007327171  -0.0017505982   0.0014216447
  -0.0012238265  -0.0012858544   0.0017810470
  -0.0000672719  -0.0005285511   0.0020196388
  -0.0002022365  -0.0015435177   0.0011503546
  -0.0005217031   0.0020254654   0.0007498345
   0.0022637917  -0.0034403393  -0.0022352304
   0.0014480266   0.0017219415  -0.0021733673
  -0.0020750974   0.0024958602  -0.0006214807
  -0.0024686067  -0.0006473802   0.0010919359
  -0.0008341644  -0.0008356624   0.0014778048
   0.0015954858  -0.0000987280  -0.0014657452
   0.0018323647  -0.0009991380   0.0008027849
  -0.0018680021   0.0008336472   0.0021847465
   0.0014212171  -0.0003987555  -0.0022385469
  -0.0014291419   0.0002423034   0.0018679811
  -0.0011220930   0.0000328098  -0.0004597835
   0.0004761654   0.0036385535  -0.0016394255
  -0.0038430717  -0.0000520317   0.0015698375
   0.0002439336  -0.0001282132  -0.0001006862
   0.0016635125   0.0002789769   0.0015715403
       9
   0.0026774330   0.0049256133   0.0030797134
  -0.0043482252  -0.0047668807  -0.0040931239
   0.0064701283  -0.0074714390  -0.0006146208
   0.0013495352  -0.0029782031   0.0067429516
  -0.0053612456  -0.0006905168   0.0030005336
  -0.0006276342  -0.0078619665   0.0036536765
   0.0057036783   0.0045521844  -0.0028481438
   0.0046342231  -0.0034645029   0.0035891885
   0.0004790154   0.0064753737   0.0002261512
  -0.0031886550   0.0093924443   0.0001639691
  -0.0082036603   0.0022919726   0.0216740212
   0.0064229110   0.0059867265   0.0013623814
  -0.0023284511   0.0095375050  -0.0107981145
   0.0091699447  -0.0030277912  -0.0007288801
  -0.0005999535   0.0022601771  -0.0067086232
  -0.0024658906   0.0099691794   0.0000455034
  -0.0027848254  -0.0060818086  -0.0088665461
  -0.0063628298  -0.0054709022   0.0002392967
   0.0072828309  -0.0066430867   0.0001578171
  -0.0010992985   0.0007905396  -0.0096979501
  -0.0083168325   0.0129948251  -0.0028357221
   0.0008436287   0.0068823562   0.0033565164
   0.0065591867  -0.0079392372   0.0087442560
  -0.0046037019   0.0017140503   0.0038015765
  -0.0003593574  -0.0028163331  -0.0022779759
   0.0021186478   0.0014688754   0.0076502356
   0.0023995426  -0.0054459966  -0.0116439636
  -0.0033475965   0.0036612204  -0.0035487278
   0.0029202226  -0.0025517068  -0.0049059031
  -0.0018711418   0.0013157950   0.0067226938
  -0.0030381797  -0.0067204737  -0.0057139280
   0.0101345531  -0.0036481962  -0.0027520138
  -0.0143737646   0.0022751219  -0.0035740191
   0.0061250820  -0.0065143309  -0.0022814929
  -0.0049547827  -0.0016643038  -0.0030085333
   0.0029367503   0.0010245796   0.0098222317
   0.0054395211   0.0038236431  -0.0081244698
  -0.0042010999   0.0034994499  -0.0065927671
   0.0037645052   0.0067592765   0.0080403415
  -0.0036863318  -0.0043713186   0.0074313498
  -0.0047073759   0.0015734581   0.0005006777
  -0.0082222953  -0.0124888820  -0.0046145576
  -0.0058231617  -0.0088832318   0.0052514163
  -0.0020986074   0.0082316741  -0.0034607452
  -0.0025921218  -0.0048841185  -0.0021105738
  -0.0107835609  -0.0026295542   0.0001502952
   0.0027681730  -0.0001088472   0.0041906606
   0.0096075912   0.0156659957   0.0103664802
  -0.0000775220  -0.0014361397  -0.0019485203
   0.0050353898  -0.0049794593   0.0012926834
  -0.0028567811  -0.0001720489  -0.0058703951
  -0.0012723359  -0.0052793901   0.0006372663
   0.0080455239   0.0023845586  -0.0009032426
   0.0116692022   0.0015340700  -0.0013703306
      10
   0.0000000000  -0.0000000000   0.0000000000
  -0.0000000000   0.0000000000  -0.0000000000
      11
  -0.0017027801  -0.0003253403   0.0004795037
   0.0009416586  -0.0001713111   0.0011494764
  -0.0009624592   0.0016420312  -0.0002152189
  -0.0002198504  -0.0005823099   0.0022480003
   0.0007071369   0.0003641030  -0.0016363582
   0.0008554816   0.0011000709   0.0004886700
   0.0001945610  -0.0003555903   0.0005945770
  -0.0017287244  -0.0002444132  -0.0002541426
  -0.0011263623   0.0013220431   0.0002036196
   0.0007356167   0.0005932410  -0.0005307457
  -0.0007105059   0.0001769806   0.0010258670
   0.0008220339   0.0017736218  -0.0001943319
   0.0013694766  -0.0001997738  -0.0017734946
  -0.0001541861  -0.0001825981   0.0006678324
   0.0015448288  -0.0015315359  -0.0008269535
   0.0015638920   0.0002149499  -0.0016038253
  -0.0007669452  -0.0010011408  -0.0001262903
   0.0009050906   0.0006028320   0.0004811279
   0.0002269802  -0.0008401397  -0.0006462206
  -0.0002500185  -0.0000384687  -0.0008530781
   0.0004301918  -0.0013330623  -0.0004619968
   0.0008421211  -0.0009264633  -0.0001960693
  -0.0015981349  -0.0022720462  -0.0023839289
   0.0020335038   0.0026811697   0.0012516304
  -0.0002489077  -0.0012337633  -0.0011356661
   0.0027496845   0.0001823367  -0.0017199410
  -0.0008050081  -0.0007294127   0.0002171539
  -0.0004969639  -0.0004790086   0.0003550058
  -0.0005573963  -0.0001521077   0.0008936167
   0.0002929647  -0.0002054359  -0.0014926127
  -0.0009134275  -0.0000871727  -0.0001258364
   0.0004999655   0.0000150840  -0.0000249759
  -0.0001855091   0.0009856595   0.0018476447
  -0.0004453919   0.0007863857  -0.0009504705
  -0.0005884108  -0.0012366111   0.0010790294
  -0.0008266348  -0.0007394959   0.0012339640
  -0.0001667008  -0.0003800699   0.0013624094
  -0.0001417557  -0.0010139340   0.0006192911
  -0.0005311035   0.0017033705   0.0006207127
   0.0018214488  -0.0025423605  -0.0018290964
   0.0010184143   0.0011102492  -0.0014163660
  -0.0013621358   0.0018476667  -0.0002981784
  -0.0017541790  -0.0004175657   0.0009063986
  -0.0006189275  -0.0005523576   0.0010820323
   0.0011701118   0.0000530615  -0.0009859238
   0.0012287814  -0.0008224782   0.0005106819
  -0.0015041377   0.0008170236   0.0015770496
   0.0011274747  -0.0002692682  -0.0015191834
  -0.0010430180   0.0001262973   0.0012370660
  -0.0006326467  -0.0001765199  -0.0001943667
   0.0004997131   0.0026146108  -0.0010265472
  -0.0028286164  -0.0000556557   0.0013509782
   0.0000995226   0.0000093693  -0.0001051410
   0.0011901834   0.0003752531   0.0010436220
      12
  -0.0048381945   0.0069608056  -0.0060185682
   0.0020652499   0.0052170693   0.0003283668
  -0.0135076690  -0.0024225174  -0.0149287289
   0.0004325413  -0.0080527002   0.0017321101
  -0.0004976774  -0.0008274376  -0.0059131367
   0.0004262425  -0.0053186026   0.0076287888
   0.0092248098   0.0047604282  -0.0108601239
  -0.0026438813   0.0065381915   0.0014851931
  -0.0003758445  -0.0062108880  -0.0055228721
  -0.0012116672  -0.0048091501   0.0059488750
   0.0033384761  -0.0034829633   0.0025764993
   0.0049934373   0.0054546946   0.0069760163
  -0.0113443456   0.0013392081   0.0005585882
   0.0124284113  -0.0035470122   0.0029989740
  -0.0020863934   0.0009466062  -0.0045480266
   0.0050211323  -0.0020961983   0.0084750234
  -0.0000914458  -0.0034853830  -0.0065527187
   0.0065097795   0.0050339942   0.0072722322
   0.0064094127   0.0053375731  -0.0050202422
   0.0149403978  -0.0012469538   0.0095462300
  -0.0109929655   0.0043787308   0.0054007607
  -0.0139120475   0.0110376265   0.0036014709
  -0.0063726267   0.0040263294   0.0019254862
   0.0007271141  -0.0056117752  -0.0053151971
   0.0046508545  -0.0010460735   0.0028458306
  -0.0086752180  -0.0111486292  -0.0097661093
  -0.0047115146   0.0087418654   0.0040728654
   0.0050101216   0.0038034932   0.0077879954
   0.0059972537   0.0106330632   0.0018929589
  -0.0067846641   0.0053382669  -0.0004887122
  -0.0036466259  -0.0000862877   0.0030006664
  -0.0038871987  -0.0062371262  -0.0087583476
   0.0021762392   0.0024403037  -0.0007228758
  -0.0009394846   0.0028010963  -0.0193549329
   0.0037155815  -0.0080368551  -0.0085086212
  -0.0041036985  -0.0052450352   0.0085291709
  -0.0042204435  -0.0011222594  -0.0144029875
  -0.0121865490   0.0024708567   0.0007133741
   0.0061679308   0.0065625094   0.0076406248
   0.0001651598  -0.0014755235   0.0139008358
   0.0051212550   0.0048028046  -0.0042911723
   0.0016310494   0.0016332082   0.0013011291
   0.0018961043  -0.0117295222  -0.0003730165
  -0.0015180588  -0.0008301055   0.0004901466
   0.0049422062   0.0035141493   0.0026595790
  -0.0054039033  -0.0020378506   0.0059739193
  -0.0031366870   0.0013460492   0.0015770377
   0.0027503566  -0.0159843640   0.0037427437
   0.0031281920  -0.0073639653   0.0069083860
   0.0083714493   0.0225532750   0.0068367763
   0.0066150157  -0.0120126437  -0.0016902314
   0.0002765925   0.0028568200  -0.0050483873
  -0.0040063092  -0.0107589932  -0.0050446673
   0.0019627468   0.0016977976  -0.0031989797
      13
  -0.0080071293   0.0034823643  -0.0046284133
  -0.0203912989  -0.0000774354   0.0034666893
   0.0084574490  -0.0019649766   0.0050158120
   0.0064887638  -0.0006061952  -0.0008886696
  -0.0017454991  -0.0012717723   0.0015447061
   0.0200151293   0.0034765506   0.0066484762
   0.0061287682   0.0031427352   0.0082602953
  -0.0006705668   0.0074723509   0.0037264105
   0.0018905627  -0.0053807211  -0.0021730169
   0.0053678466  -0.0053982532  -0.0120373979
  -0.0072721995   0.0025211643   0.0044343774
   0.0123342721   0.0017210185  -0.0115063611
   0.0014590434   0.0009195461  -0.0013719898
  -0.0035916096   0.0095843310  -0.0013135431
   0.0054723807   0.0001401103   0.0045442263
  -0.0036428644   0.0051174796   0.0032539913
  -0.0047929147   0.0017952297  -0.0040039664
   0.0072294297  -0.0001474305  -0.0028011058
  -0.0044173955  -0.0045235566  -0.0037742065
  -0.0057144196  -0.0031046288  -0.0018652959
  -0.0026934613   0.0002504814  -0.0024831314
   0.0012207668   0.0031008158  -0.0027195153
   0.0030724776   0.0045550646   0.0054584846
   0.0016425538   0.0024961077   0.0007570843
   0.0044857594  -0.0081926600   0.0081245470
  -0.0034526488  -0.0047199567  -0.0049396756
   0.0091892101  -0.0032543025   0.0013931184
  -0.0024364831  -0.0095375446  -0.0025918725
  -0.0000751648   0.0083323504   0.0097846125
   0.0103700434  -0.0009062102  -0.0001970582
  -0.0053511908   0.0004850186  -0.0024278968
   0.0007969781   0.0034350408  -0.0009659794
   0.0050016251   0.0009104323  -0.0004512205
   0.0033540941   0.0015029429   0.0069847077
  -0.0070782075   0.0101421788  -0.0057174864
  -0.0029803028  -0.0007051239   0.0152174452
  -0.0053244902  -0.0025818338   0.0071064228
   0.0069580740   0.0011703026  -0.0004034593
  -0.0071606937  -0.0083314204   0.0029238700
   0.0062692927  -0.0043584522   0.0013230627
   0.0109975427   0.0007012474  -0.0110197742
  -0.0095070997   0.0066712180  -0.0117610929
  -0.0047052154  -0.0001480473   0.0021433059
  -0.0019004825   0.0044529013  -0.0014158678
  -0.0096305036  -0.0002374492  -0.0005843987
  -0.0046294335  -0.0010186166  -0.0012264890
  -0.0043604035   0.0066855414   0.0004886233
   0.0052260447  -0.0073202435  -0.0003724792
  -0.0019772397  -0.0059124311   0.0049818874
  -0.0080208077   0.0025522648  -0.0001448409
  -0.0034111025  -0.0012596224  -0.0026831584
  -0.0113285948  -0.0030984077  -0.0049481241
   0.0009449216  -0.0047234649  -0.0056101543
   0.0118963928  -0.0080360326   0.0014454855
      14
  -0.0004930294  -0.0008358538   0.0008507746
  -0.0005022157   0.0005055859   0.0018101847
   0.0022682029   0.0004025783  -0.0001753206
   0.0021947994  -0.0004583299  -0.0000925577
  -0.0000848906   0.0011751346   0.0024560248
   0.0004733991   0.0009059463  -0.0024694587
  -0.0016775189  -0.0005124370   0.0017237953
  -0.0005009386  -0.0000462070   0.0010869293
  -0.0030931944  -0.0019033813  -0.0034494545
   0.0025726504   0.0008841963   0.0024227153
  -0.0003501808  -0.0009949209  -0.0007956642
   0.0027513828   0.0018937802  -0.0001589722
  -0.0041488161  -0.0012674603   0.0001464762
  -0.0004071962   0.0028998463   0.0011477495
   0.0015443704   0.0003466243   0.0002594719
  -0.0005645625  -0.0003849480  -0.0019701785
  -0.0002446771  -0.0013165186  -0.0011338177
   0.0026926951   0.0007054561  -0.0004317854
   0.0018309515  -0.0004333019   0.0012916721
  -0.0004539191  -0.0010730870  -0.0020096178
  -0.0042898005  -0.0004774546  -0.0002404861
  -0.0007880442   0.0010486506   0.0026635153
  -0.0007766646   0.0020538836   0.0011165224
  -0.0026949027  -0.0012590670  -0.0002973064
  -0.0012006308  -0.0001682772  -0.0015584764
   0.0004850844   0.0011913739   0.0001500667
  -0.0027198347  -0.0001992038   0.0004719684
   0.0006580863   0.0037246062   0.0012836547
  -0.0005064829  -0.0022426319   0.0001738524
   0.0020412361  -0.0011618380   0.0002318728
   0.0001114393  -0.0003772371  -0.0008555208
   0.0011304022  -0.0015629446  -0.0010181516
   0.0011894932   0.0004835272   0.0010617401
   0.0000073163  -0.0020240308  -0.0008547789
  -0.0016795186  -0.0012531416  -0.0016842934
   0.0017335589   0.0011977727   0.0008685701
  -0.0012456580  -0.0007802395  -0.0026073456
   0.0010977066   0.0036638107   0.0022466917
   0.0018686682  -0.0007443266  -0.0009051488
   0.0006674953  -0.0002003858  -0.0001106048
  -0.0000237351  -0.0016052974  -0.0002868066
   0.0022473074  -0.0008945337  -0.0001457931
  -0.0005639120  -0.0003241167   0.0010190524
   0.0029673659  -0.0014208884   0.0002322672
   0.0033391536   0.0011171955  -0.0012102874
  -0.0004116600  -0.0009656393  -0.0015315174
  -0.0004099507   0.0015921643   0.0008985784
   0.0008585534   0.0010213257   0.0010938273
   0.0000318406   0.0013526625   0.0011579054
  -0.0013186732  -0.0017801111  -0.0024323808
  -0.0011044836   0.0007527006   0.0016321917
  -0.0016057416  -0.0016116824   0.0003280479
  -0.0016476249   0.0003887457  -0.0006919984
  -0.0012547016   0.0009719259  -0.0007083941
      15
  -0.0007426666  -0.0009267521  -0.0045874618
   0.0020372308   0.0013345420   0.0067349830
  -0.0006407733  -0.0083292039  -0.0044054901
   0.0068593923   0.0099222594   0.0040779539
   0.0051968146   0.0016437830  -0.0026029794
   0.0070658850  -0.0024728563  -0.0047613627
  -0.0043696396   0.0023519323  -0.0085491587
   0.0101554253   0.0093749528  -0.0026222769
   0.0009618454  -0.0023491611   0.0043767443
  -0.0034153298  -0.0000459499   0.0002814978
   0.0025940997   0.0035416517  -0.0033109044
  -0.0056942828  -0.0021442642   0.0029752693
  -0.0010493448  -0.0011058813  -0.0056251823
  -0.0009371092   0.0020392191   0.0029196325
   0.0051483924   0.0005282823   0.0035309992
  -0.0020870227   0.0044740916   0.0024166693
  -0.0008611256   0.0011846632  -0.0042504592
  -0.0066772277  -0.0037028546   0.0031286276
  -0.0035722955  -0.0004392184  -0.0045650491
   0.0051721803   0.0058471543  -0.0017322100
  -0.0012590952  -0.0033585213   0.0035812465
   0.0009969294   0.0030463962  -0.0036107024
  -0.0035048132   0.0000320051   0.0024533648
  -0.0004035872  -0.0036631390  -0.0039247323
  -0.0019160766  -0.0046473105   0.0041221709
   0.0005547770   0.0003774996  -0.0024835719
  -0.0016103944  -0.0047808586  -0.0003457173
  -0.0055044277   0.0015970093   0.0084686965
  -0.0000265884  -0.0014524334  -0.0019468523
  -0.0080133564  -0.0015717202   0.0005538752
   0.0011783326   0.0005995383   0.0030305374
   0.0006969681  -0.0010394547   0.0058316084
   0.0025254135  -0.0010508949  -0.0010589483
  -0.0046258325  -0.0003266745   0.0000773967
   0.0002838474   0.0010861440  -0.0074121377
  -0.0042246017   0.0014489929  -0.0072512561
  -0.0035208937   0.0030754291   0.0088221179
  -0.0048718003   0.0056474317  -0.0010720384
   0.0017820104   0.0014561871   0.0002677553
  -0.0029269236  -0.0054892208   0.0029664169
   0.0013947792   0.0022190127   0.0015800899
  -0.0024498478  -0.0004439421   0.0015308515
   0.0020344258  -0.0002895276   0.0012867353
  -0.0018516387  -0.0017014188  -0.0006390260
   0.0002766645  -0.0006426329  -0.0028056412
   0.0052179977   0.0013347775   0.0062027295
  -0.0065699943   0.0008020759  -0.0015855004
   0.0131669862  -0.0010966753   0.0038824324
   0.0033522449  -0.0087637906   0.0032294808
   0.0010074393  -0.0062529217  -0.0015562832
  -0.0055998570  -0.0002144517  -0.0095525981
   0.0038581160   0.0035220566   0.0082210697
   0.0030232806   0.0036403293  -0.0034002614
   0.0023850675  -0.0038256867  -0.0008931516
      16
  -0.0022424303  -0.0006666698   0.0007240201
   0.0013342400  -0.0001811302   0.0013407571
  -0.0012850382   0.0022662733  -0.0003056027
  -0.0002198085  -0.0009997109   0.0028950001
   0.0009356475   0.0007171723  -0.0022056060
   0.0012446104   0.0013922999   0.0003250995
   0.0004130874  -0.0003164737   0.0007988036
  -0.0024756852  -0.0002732683  -0.0003200795
  -0.0015760407   0.0017820804   0.0000028385
   0.0008335997   0.0009465143  -0.0006499540
  -0.0009282149   0.0002135836   0.0013003036
   0.0011573068   0.0022339689  -0.0001646315
   0.0018170359  -0.0001598911  -0.0022309714
  -0.0000954542  -0.0002111072   0.0009342052
   0.0019947811  -0.0020826339  -0.0008341149
   0.0023166070   0.0004662302  -0.0020941840
  -0.0010385852  -0.0015333314  -0.0000662857
   0.0011830730   0.0006894029   0.0007537179
   0.0002866141  -0.0009865430  -0.0005885557
  -0.0003693272  -0.0000240333  -0.0012373332
   0.0005782508  -0.0017350588  -0.0002774044
   0.0010014471  -0.0012983914  -0.0001955098
  -0.0023958735  -0.0027410034  -0.0031636879
   0.0027858176   0.0036911744   0.0017122190
  -0.0002652068  -0.0017102780  -0.0015350968
   0.0037830580   0.0003007205  -0.0020524260
  -0.0010397412  -0.0009727516   0.0002290398
  -0.0008216301  -0.0006732141   0.0006763396
  -0.0006362661  -0.0000916645   0.0011981418
   0.0001993224  -0.0002245005  -0.0019429433
  -0.0012359204  -0.0000270333  -0.0005494400
   0.0008187263  -0.0000719047   0.0000468824
  -0.0002435983   0.0014289795   0.0024207230
  -0.0005844187   0.0011702346  -0.0015119556
  -0.0007168434  -0.0016854943   0.0013799823
  -0.0011730252  -0.0012114676   0.0017113213
  -0.0000836188  -0.0005110374   0.0019333540
  -0.0001943255  -0.0014731253   0.0010798380
  -0.0005254415   0.0019882851   0.0007334305
   0.0022103413  -0.0033248846  -0.0021862762
   0.0013934183   0.0016407794  -0.0020739147
  -0.0019774567   0.0024122523  -0.0005800584
  -0.0023759877  -0.0006161016   0.0010739613
  -0.0008059520  -0.0008010259   0.0014276573
   0.0015403869  -0.0000734358  -0.0014032559
   0.0017506968  -0.0009780371   0.0007634419
  -0.0018221945   0.0008336347   0.0021052971
   0.0013857794  -0.0003803455  -0.0021448706
  -0.0013798520   0.0002249451   0.0017849522
  -0.0010541496   0.0000014113  -0.0004234556
   0.0004840334   0.0035041608  -0.0015595538
  -0.0037107083  -0.0000554211   0.0015458221
   0.0002238230  -0.0001080351  -0.0001018570
   0.0016010904   0.0002949010   0.0015018758
      17
  -0.0040509877   0.0014893201   0.0046282011
   0.0013516769  -0.0016175890  -0.0023847277
   0.0077937388  -0.0148775939   0.0088048086
   0.0035698606  -0.0064793624  -0.0006460911
   0.0004969359  -0.0016414408  -0.0050085610
   0.0069611293  -0.0045326521   0.0145240381
  -0.0024314256  -0.0017309316   0.0094389288
   0.0025998517  -0.0035099725  -0.0008734861
   0.0064567259   0.0036300285   0.0029684112
  -0.0019218611  -0.0001593857   0.0040232367
  -0.0033892303  -0.0073266596  -0.0023963123
  -0.0083125902   0.0027802089   0.0008224129
   0.0080163298  -0.0012480138  -0.0111384424
  -0.0020288331  -0.0044145197   0.0072505617
   0.0018096456  -0.0014855612  -0.0008263122
  -0.0100486633  -0.0030550851  -0.0034274348
  -0.0054573090  -0.0009738895   0.0016218115
  -0.0028032658   0.0037425135   0.0080433254
   0.0038557320   0.0022272086   0.0004092996
  -0.0043861432  -0.0032376540  -0.0027220751
  -0.0012321004   0.0028020816  -0.0064470977
   0.0054964247   0.0035428768  -0.0033134510
  -0.0115231875   0.0100478767   0.0124680807
   0.0025321444   0.0019884644  -0.0006885915
   0.0075633045   0.0036495248   0.0022343717
   0.0109999580  -0.0023917125  -0.0061067502
   0.0054059770   0.0038386561  -0.0009025028
  -0.0012995364  -0.0055183595  -0.0042477199
   0.0115443564   0.0046827215  -0.0059139713
   0.0119384254   0.0051643892  -0.0027572081
  -0.0100741709  -0.0029655873   0.0020256619
   0.0063683496  -0.0148140937  -0.0050556748
   0.0073719926   0.0079566893  -0.0052446196
   0.0071916868   0.0048869156  -0.0005822541
  -0.0026037038   0.0003313509   0.0059568729
  -0.0024712361   0.0000181265  -0.0066951552
  -0.0064237912   0.0011141262   0.0095515800
  -0.0022444668  -0.0003881163   0.0018681063
  -0.0065123924   0.0061760185   0.0060300151
  -0.0053963502   0.0089354918  -0.0026974264
  -0.0052164994  -0.0007730193   0.0021886071
  -0.0028662722   0.0022570153  -0.0056020348
  -0.0060337584  -0.0033027492   0.0065820787
   0.0073450793   0.0057848526  -0.0085214915
  -0.0110628542  -0.0002820106  -0.0133626495
   0.0040252954   0.0042583366  -0.0100575552
  -0.0056289130   0.0057698585  -0.0074100014
  -0.0087145258   0.0046152458   0.0030879696
   0.0073475057  -0.0145815070   0.0019979376
  -0.0141733036  -0.0070652560   0.0008889059
   0.0006720490  -0.0038720913   0.0010116981
   0.0043276436   0.0011026704  -0.0095080983
   0.0015914780   0.0128371856   0.0183443405
   0.0036740742  -0.0033849415  -0.0022335658
      18
  -0.0014176443   0.0029716056   0.0049972917
  -0.0006704480  -0.0085070458   0.0001277627
  -0.0021026319  -0.0020505138  -0.0009429837
  -0.0058994472   0.0008485546   0.0069093035
  -0.0084140110   0.0014229327   0.0033242256
   0.0016443934   0.0025107886  -0.0060823012
  -0.0058372546  -0.0167312854  -0.0064220260
  -0.0084677794   0.0025848440  -0.0106802877
   0.0098036514   0.0020193572  -0.0072191828
  -0.0000718826  -0.0001613657  -0.0025589065
   0.0036144943  -0.0040938963   0.0167838749
  -0.0065193091   0.0021480994   0.0092432375
   0.0058695383   0.0029499518  -0.0031025699
  -0.0031355805  -0.0066182859   0.0017649903
   0.0013893174   0.0010958535  -0.0021022854
  -0.0000422958  -0.0098479147  -0.0002017027
   0.0042303093  -0.0018076428   0.0031422315
  -0.0006062310   0.0042771474  -0.0008001405
  -0.0016443186  -0.0071178037   0.0019122880
  -0.0003686668  -0.0084917333  -0.0033722855
   0.0013590453  -0.0024780978  -0.0079803217
   0.0011136180  -0.0074761864  -0.0005851960
  -0.0018446781  -0.0025086938   0.0012137404
   0.0048209454  -0.0060845794  -0.0046919827
  -0.0002152560  -0.0014255930   0.0011242652
   0.0048952534   0.0072806033   0.0102308960
  -0.0012853752   0.0065569737  -0.0001534252
  -0.0031617895  -0.0002267151   0.0061517142
  -0.0005593645   0.0036909106  -0.0003684753
  -0.0045833004   0.0008172643  -0.0047012888
   0.0004807885   0.0017148609   0.0010046556
   0.0018904100   0.0001633200   0.0060156989
   0.0005469632   0.0055349574   0.0005701533
  -0.0021367988   0.0234224264   0.0025761292
   0.0067344430  -0.0040048019   0.0045532656
   0.0009901642   0.0034200101   0.0007886322
  -0.0043472031   0.0009090428  -0.0018898394
   0.0118164423   0.0173449231  -0.0131338458
  -0.0093354283  -0.0075647601   0.0002156360
  -0.0045523582  -0.0062267542  -0.0074661641
   0.0001471026   0.0059971969  -0.0032179550
  -0.0101631871   0.0027760854   0.0004206118
  -0.0018002293  -0.0013699562   0.0038470523
  -0.0032161329   0.0061018978   0.0120932536
   0.0014646410  -0.0032633797  -0.0023078195
   0.0025765617   0.0113146006   0.0072903709
   0.0023365978   0.0079500476   0.0005126834
   0.0093478008  -0.0044924999  -0.0180471747
   0.0043071188  -0.0015178396   0.0037175822
   0.0025949706   0.0024178400  -0.0036288701
  -0.0009484835  -0.0080430508   0.0059882647
   0.0046691655   0.0054225117   0.0001310385
  -0.0019775681  -0.0197430974  -0.0073727054
   0.0066809175   0.0061888860   0.0023788863
