ITEM: TIMESTEP
0
ITEM: NUMBER OF ATOMS
1
ITEM: BOX BOUNDS xy xz yz pp pp pp
-9.8149545760000001e-01 3.9259818304670908e+00 -9.8149545760000001e-01
0.0000000000000000e+00 4.1641325625999999e+00 9.8149545760000001e-01
0.0000000000000000e+00 2.4041630559999998e+00 1.3880441875000000e+00
ITEM: ATOMS id type xsu ysu zsu fx fy fz vx vy vz
1 1                    0                    0                    0 1.42247325030098e-16 -3.46944695195361e-17 1.11022302462516e-16                    0                    0                    0
ITEM: TIMESTEP
1
ITEM: NUMBER OF ATOMS
1
ITEM: BOX BOUNDS xy xz yz pp pp pp
-9.8149545760000001e-01 3.9259818304670908e+00 -9.8149545760000001e-01
0.0000000000000000e+00 4.1641325625999999e+00 9.8149545760000001e-01
0.0000000000000000e+00 2.4041630559999998e+00 1.3880441875000000e+00
ITEM: ATOMS id type xsu ysu zsu fx fy fz vx vy vz
1 1                    0                    0                    0 1.45716771982052e-16 1.04083408558608e-16 1.45716771982052e-16                    0                    0                    0
